OOYALA NAME,OOYALA UPLOAD DATE,OOYALA CODE,YOUTUBE URL,NOTES,NEXT STEPS
Behind the scenes with The Wiggles,18/03/2019,BvYmtnaDE61Kn-6H7Uy4ABwKtLqSVyDp,https://www.youtube.com/watch?v=ZOZm1taRLFE,,
Inside Morning Class,5/3/2019,40Y2lkaDE6ESV7FDVGfSHux7t-zdDBy2,https://www.youtube.com/watch?v=s8aIrX9UwSA,,
Morning class: the daily ritual,13/01/2016,E3dGw1MDE6kdLoiCYIp5WF-8bw3fJXvk,https://www.youtube.com/watch?v=s8aIrX9UwSA,,
A Day in the Life of Benedicte Bemet,15/03/2016,ZsdzUyMjE6T8x36YQV9n5PmqapblJKm0,https://www.youtube.com/watch?v=XoIbNzvZ_BM,,
Discover our world,13/01/2016,Y5cGw1MDE6dwA8yb7PYB-Aft33c6wA8u,https://www.youtube.com/watch?v=gfc34BIbgp8,,
Underwater Dance,3/8/2018,9xaWJ3ZjE64GVm288oY37WsIciTzzcuI,https://www.youtube.com/watch?v=ep0pGsdX9WM,,
Meet our Artistic Director David McAllister,15/03/2016,JlMjQyMjE6c2QCwV8UK1oB91Zx5nWt0A,https://www.youtube.com/watch?v=g4uL4kPcyrc,,
Ballet Men,23/03/2016,4xeDhhMjE6rwyBY3qNw63AjSWlBsuVaF,https://www.youtube.com/watch?v=JN1wuOpCZvk,,
Ballet in winter,11/1/2016,BpMTc0MDE69JFKCjM3qLodFAbIfe-0Vj,https://www.youtube.com/watch?v=B5UkOzUq83Q,,
Footy Meets Ballet,25/06/2018,ZnNGZtZjE6ncuCaFbZSl_kgs1SkLiL0K,https://www.youtube.com/watch?v=euVeT_Pye9w,,
Perfect partners,11/1/2016,BvMzc0MDE6owcabx8O81fwNr_HDgyVDk,https://www.youtube.com/watch?v=Nq3SDh83Apc,,
A Night at the Ballet,4/5/2018,Bka3U4ZjE6W6Ot8SR-6dc0o_93TasVFA,https://www.youtube.com/watch?v=URTGXvzXyO4,,
CREATING FIREBIRD,1/2/2018,V5aTc3ZTE6W8X717cSlf7ibbfXCI3P63,https://www.youtube.com/watch?v=kYp0p5U6dVY,,
Life as Ballet,12/12/2017,xqY3NtZDE64sHJ_a5ftjExUSeo_yt9uK,https://www.youtube.com/watch?v=PjM69bMQEvA,,
Decoding Mime,22/08/2018,90ZmgxZzE6Y6f2AsKS33XxzqLBGifOsS,https://www.youtube.com/watch?v=OPQXELElYxM,,
David McAllister: 30 years with The Australian Ballet,11/1/2016,F5cDc0MDE6SC7HykaaMx0yFla6N0_sco,https://www.youtube.com/watch?v=I2W_aYAhpYM,,
The tutu,15/03/2016,8weDUyMjE6x2IqdZQDWX2ePONcolPAzR,https://www.youtube.com/watch?v=IJRoFMidlBc,,
The art of lifting,15/03/2016,F4NTgyMjE6lIGqBUKKVKeZ17a4u7P99y,https://www.youtube.com/watch?v=UujZhHKqcPg,,
Technique: Pirouette,11/1/2016,Awcjc0MDE67gTKtizA4K1OdhHUy5BdJj,https://www.youtube.com/watch?v=-vCNl270OVU,,
FOOTY MEETS BALLET,25/03/2019,ZiNTFpaDE6WtYfLF_RCNk_wTnyyaGTTG,https://www.youtube.com/watch?v=euVeT_Pye9w,,
Discover the joy of Nutcracker - The Story of Clara,4/5/2017,o2cGIyYjE6zLVY6m0i54uK5T-av6Kzx8,https://www.youtube.com/watch?v=7yl5GMNUjn0,,
Infra: On the brink,16/03/2017,52bWhjYTE6YGgRbfnt_hzNutddHJij3L,https://www.youtube.com/watch?v=iCQGkZ211mg,,
Disney and The Australian Ballet dream big,25/11/2016,htc2l0NzE6zeqvqrBYm9SNBr9Pq6ILEU,https://www.youtube.com/watch?v=igSyO8NtOHw,,
A WORLD OF BEAUTY,1/2/2018,UxYTg3ZTE6XF4hxtt6ZPis75LiJYcen8,https://www.youtube.com/watch?v=qy4FjX5cV7E,,
Christopher Wheeldon talks DGVÂ©,15/03/2016,83ZDQyMjE6eOCT1mtt6IJcVGFmZ9f9ZX,https://www.youtube.com/watch?v=XviXVTN247I,,
Our Black Swan Program,29/03/2016,kyN3JlMjE6pO6Vo0ItlwCZy_I9yfvdg5,https://www.youtube.com/watch?v=JlEvo5KdNo8,,
The Dancers Company with Steven Heathcote,6/1/2016,92ankwMDE6IWQiT6UqWNghd_oFqSQJ06,https://www.youtube.com/watch?v=6QM4Jz8Tw9s,,
Rehearsing Balanchine,4/7/2017,1hZnJzYjE63vPl9u_9bSqKYy1jnqAzWZ,https://www.youtube.com/watch?v=8QySifBFadk,,
A night out at the ballet,28/07/2017,JtcmozYzE6rW1XBA3bFc0aaj-NdztzL9,https://www.youtube.com/watch?v=URTGXvzXyO4,,
Ballet in Symphony,27/06/2017,RmdjBxYjE6nrqjnC9BTWlqX2JOVD1dRD,https://www.youtube.com/watch?v=JuUfoylcYlQ,,
Ellipse,5/3/2018,RmbXhrZTE6pRkV0mevjDVXjhCVuh9g5a,https://www.youtube.com/watch?v=5VupoeDH6SY,,
Christopher Wheeldon discusses DGVÂ©,21/04/2016,ptNGIwMzE6nDMh4yZMTkGS0IWQGDZ6YA,https://www.youtube.com/watch?v=XviXVTN247I,,
Squander and Glory in action,22/12/2016,drbzJpODE6y3oTw10Q6Aj8rl7TY6GshC,https://www.youtube.com/watch?v=-hQrqtFbkJU,,
A Gala Spectacular in Adelaide,10/10/2017,d5dWV5YzE6hE_ZiMv5IF0VchBfxfojtD,https://www.youtube.com/watch?v=2g5Z_R9-yW8,,
Faster. Modern ballet in top gear.,15/02/2017,tsazZxOTE6RyIOSZL47Qbx8254EKjiWr,https://www.youtube.com/watch?v=W5I28CQBIro,,
A Gala in Adelaide,26/07/2017,ZjdmsyYzE6O_w_lTGYRUC51XFvDa7WJg,https://www.youtube.com/watch?v=2g5Z_R9-yW8,,
Meet our Principal Physiotherapist,16/03/2016,dpZHgyMjE6fFwZtr70FzbGPlDGztA8Cv,https://www.youtube.com/watch?v=PoN7luBVBa8,,
Symphony in C,22/12/2015,Nsd3ZueTpfxSFHEieyk14XJOm2cGwkCx,https://www.youtube.com/watch?v=5oTKPUK-0Pw,,
EDU_SOUTHAUSTRALIA_PHIL.mp4,29/11/2019,IyYzR1aTE60BqYFtWrjWPPOXsuue3eoF,https://www.youtube.com/watch?v=ET_4GoerwiY,,
"William Forsythe's In the Middle, Somewhat Elevated",15/03/2016,luOTQyMjE6A33GxLZ-IGwiXnD52A5fjV,https://www.youtube.com/watch?v=WDgvET_5V2k,,
Faster,26/09/2016,c3a3UzNjE6yTQk6nmsMH_0HmBoPee0-c,https://www.youtube.com/watch?v=W5I28CQBIro,,
An Enchanted Lunch with Dinner by Heston Blumenthal,30/01/2019,ZwczI2aDE6nmgn6GyGD0-g6bl10Xdput,https://www.youtube.com/watch?v=uacoWr2HGwA,,
Approach to Choreography,6/3/2018,RhaWJsZTE6fi1Z2gGDA4f1yCNVJiwXMJ,https://www.youtube.com/watch?v=LLr89kaM1KM,,
Making Alice: Blending Theatre and Ballet,12/12/2018,xob2R1ZzE6aKt55UMLQ9-ySW17JqEvfE,https://www.youtube.com/watch?v=wvoD-90Zdro,,
ABC Classic 100: Dance of the Knights,6/6/2018,1pbXloZjE68kEvJPwTuYxZ9ef_hi5aus,https://www.youtube.com/watch?v=zYuzDbF2jpY,,
INSIDE OUR MORNING CLASS,25/06/2019,9kZjgyaTE6GAmU3LcjNSr9E9awEFUOc7,https://www.youtube.com/watch?v=zzXuFIwWWVk,Morning Class,
THE AUSTRALIAN BALLET SAYS YES,13/09/2017,RveXJuYzE6x3lI66onR4zU00dwKZgYjj,https://www.youtube.com/watch?v=2UO30afw3_c,,
Choreographer Alice Topp,5/7/2017,RjbDR0YjE6z7Ve8lLbRrn6CSdHo6Kzgz,https://www.youtube.com/watch?v=pDi2MrVnPEo,,
THE DYNAMIC DUO,30/05/2018,o0YnhmZjE6bSEs58ngqCUXe2tlx4b7z5,https://www.youtube.com/watch?v=4Llq36r3a9w,,
Vitesse: Ballet without borders,,QzMHQyMjE6oH2FNc-_nu8_3uY1pR5OHW,https://www.youtube.com/watch?v=moBS5OrKCaE,Vitesse,
Rehearsing Balanchine's Symphony in C,,lvODU0MzE64MukDFtTVgQMFGH34Lid2F,https://www.youtube.com/watch?v=8QySifBFadk,Symphony in C,
David Hallberg on Symphony in C,15/08/2017,RuOXJhYzE68raNShIdVjh8VKfcZ7ar5D,https://www.youtube.com/watch?v=4tqmRnyCnsU,Symphony in C,
Symphony in C,26/09/2016,Vob3UzNjE62Wj32NSHUQWlJm1z7zpxng,https://www.youtube.com/watch?v=jsDZ8tz_c9E,Symphony in C,
LIFTS OF SYLVIA,30/10/2019,pmY2NwaTE6TxDmMgq8vLjgDaomPDClg9,https://www.youtube.com/watch?v=Mc0OW66SMRw,Sylvia,
LIFTS OF SYLVIA,29/10/2019,w0OTZwaTE6jrbErguXfaTuxeu-Ajsk1R,https://www.youtube.com/watch?v=Mc0OW66SMRw,Sylvia,
LIFTS OF SYLVIA,unknown,FnMzZwaTE6jwgGPxZGWN40uQctHUVmdS,https://www.youtube.com/watch?v=Mc0OW66SMRw,Sylvia,
Costumes of The Merry Widow,1/5/2018,t4ZW43ZjE6IJNRQvci6hRklRiRz0IE1E,https://www.youtube.com/watch?v=6CxichcMP3k,The Merry Widow,
CoppÃ©lia: Road to the Sydney Opera House,,J1MXNnNzE6iTMWcVoE4veLLwaANvkv5b,https://www.youtube.com/watch?v=3gWA-HzkpJc,Coppelia,
LAC,21/09/2018,oydnM5ZzE6mEySiMg2BsNSX5hzhMstfY,https://www.youtube.com/watch?v=AnrMyHTX47k,LAC,
La Sylphide Trailer,29/08/2016,04ZjVsNTE6jSAPAIop2H7VzDMw73EQ6f,https://www.youtube.com/watch?v=_vf5Bd3XUTQ,La Sylphide,
Dyad 1929 Trailer,29/08/2016,x0ZTVsNTE6aUYtO6RwZCm0i-wNvhDCog,https://www.youtube.com/watch?v=0QJ9viDUrw4,Dyad 1929,
Murphy in 2018,,dwZ3hmZDE6y8ns0AgvU5HZbWRa6AfELt,https://www.youtube.com/watch?v=mc5s_XX75CA,Murphy,
Murphy in 2018,,l2ZjdyYzE6LYvChsMwIXRsaJfFW7i5rm,https://www.youtube.com/watch?v=mc5s_XX75CA,Murphy,
Murphy: The Early Years,18/12/2017,VyMTJwZDE6ozyDXr5eZTB6K91g--Z945,https://www.youtube.com/watch?v=toKZ2KSLWac,Murphy,
MURPHYâ€™S GRAND,8/2/2018,1uNnM5ZTE6Nrn_TVUtbdYIMsu-m7AtLS,https://www.youtube.com/watch?v=ezcm3o2-_AI,Murphy,
NIJINSKY_BTS_V2_Final-Graded_HBR.mp4,14/09/2016,dsNmR2NTE6wjMKr2lePsllLGc_tYQOFn,https://www.youtube.com/watch?v=RBbhDZRm5-g,Nijinsky,
Nijinsky in Reviews,12/9/2016,1mdHl0NTE6EV20-C8IR3UYWzGjIdIJJd,https://www.youtube.com/watch?v=L3TLkRcDkuM,Nijinsky,
In the mind of Nijinsky,16/06/2016,gxb2o2NDE6imZs9x1pQdzfwx56DRc7nu,https://www.youtube.com/watch?v=UyHXBBpW1y4,Nijinsky,
Nijinsky,22/12/2015,V1MHdueTpDXx4IwCT4m0gxKluDlO8t1J,https://www.youtube.com/watch?v=vB5UacWeNJU,Nijinsky,
Developing Nijinsky,,Y5bDhuNTE6XKTmbbcjJ8GZq6Pp0f4ER-,https://www.youtube.com/watch?v=PA-5FdkPmJA,Nijinsky,
THE HAPPY PRINCE,21/09/2018,M4dnM5ZzE6lO-JqdXvJkxEYK5PCHhfqT,https://www.youtube.com/watch?v=gFRU3TQCRZ0,The Happy Prince,
CoppÃ©lia,22/12/2015,Q3b3ZueTpdKihTat1IHzLqfuokaaCZVV,https://www.youtube.com/watch?v=A9H3yTY7lqA,Coppelia,
See Sylvia Storm Melbourne,18/07/2019,9lcm42aTE6e-7aUwpCpRbmcX9BLwrKRw,https://www.youtube.com/watch?v=RULLlgFJ4_E,Sylvia,
SYLVIA,21/09/2018,lpaXQ5ZzE6K8miuoIuEtkXo6KF8E74dy,https://www.youtube.com/watch?v=MaYz3DFlqK0,Sylvia,
5 REASONS TO SEE SYLVIA,9/8/2019,xvcjZiaTE6ky_-ZgFNOrK5PcPBxYuOd2,https://www.youtube.com/watch?v=p92t1h14Hac,Sylvia,
Romeo and Juliet: The Costumes,21/06/2016,RwYmNhNDE6MTSF-u2dH1t9ojsUgJJGkG,https://www.youtube.com/watch?v=PsnGUelUvhc,Romeo and Juliet,
Houston Ballet presents: Romeo and Juliet,22/12/2015,E0bnZueTq6TELIUt2zk9RNRYB9ymdo-F,https://www.youtube.com/watch?v=B9EGIxH0CJs,Romeo and Juliet,
Houston Ballet's Romeo and Juliet,8/6/2016,01bmUwNDE6Mhrjpws0UEsxEOF2ONFx-Z,https://www.youtube.com/watch?v=B9EGIxH0CJs,Romeo and Juliet,
Giselle in 2018,21/09/2017,NuajdyYzE6-hf2x5Wt0KCdv8WigEv2KL,https://www.youtube.com/watch?v=kyASKPhFKyI,Giselle,
Giselle: The Regional Tour,29/07/2016,pnNnQwNTE6Dm8LXvjN8v_0PUWitTAxgE,https://www.youtube.com/watch?v=4049-bqBWwQ,Giselle,
Giselle: A Universal Love,24/07/2018,xucml0ZjE6eVzGXmFmVzSFFYzjpnF3AL,https://www.youtube.com/watch?v=R6Y2qMVjtcs,Giselle,
Giselle: Behind the Ballerina,13/01/2016,1oM241MDE6BuetemHmKwPOzAD0VRH5Fh,https://www.youtube.com/watch?v=NrD3Vgb7MdM,Giselle,
Giselle in the forest,15/03/2016,NnNzUyMjE6Xcj8AoQ-mPbrEQllV2S4n1,https://www.youtube.com/watch?v=8DP_9t96h8o,Giselle,
VERVE,21/09/2018,NhdnM5ZzE68ftYT6PGBe1fmlTE4FkLtS,https://www.youtube.com/watch?v=rmeBLXLAEjQ,Verve,
Verve: Kelvin Ho's set designs,19/03/2019,p2aHJnaDE6E80mRcoMTgXF5lwgImMsWd,https://www.youtube.com/watch?v=KDwqxt0WEF8,Verve,
Verve in 2018,21/09/2017,4yaTdyYzE615pcReFyZY8B6oMBcYEdn3,https://www.youtube.com/watch?v=mqKJGu3cRJ0,Verve,
Tim Harbour's Filigree and Shadow,6/1/2016,1laXcwMDE6EsWoFLPiImUvcCQwHBw2EA,https://www.youtube.com/watch?v=hQxie8HKZm8,Verve,
Verve is coming to Sydney,27/02/2019,x2NjJjaDE6AFiq8_WojtyH03DDbZ1GJL,https://www.youtube.com/watch?v=YnL8jTSfB9Y,Verve,
20:21: Kelvin Ho's set designs,,M2aXkwMDE6ssjCEBaaXoybqucK07k5zS,https://www.youtube.com/watch?v=KDwqxt0WEF8,Verve,
AURUM: BEAUTY IN THE BROKEN,20/03/2019,R2NjFoaDE6GdGIDEoeH4wLJ1Xaxn_nt1,https://www.youtube.com/watch?v=Y4wyPxlqOyg,Verve,
Verve: Designing Filigree and Shadow,,RieXhiZjE6wB8CfeHURrDjcZU1RReakc,https://www.youtube.com/watch?v=1J7XCgZ_xJQ,Verve,
Filigree and Shadow: First glimpse,,Y2b3kwMDE6h520HOwEtXCVO_u-qZtQAH,https://www.youtube.com/watch?v=bpkl10emWb8,Verve,
Verve: Filigree and Shadow,17/05/2018,FneG1jZjE6eqElSTs7i2X_sMo8TADQ8c,https://www.youtube.com/watch?v=lcC4TR2BCdI,Verve,
Verve: A Taste,4/5/2018,xuZHQ4ZjE6q9riLpehWT7mj8EKFhcDhQ,https://www.youtube.com/watch?v=Op7owueRVW4,Verve,
Alice on Aurum,29/05/2018,prM25mZjE63AWW0tfScU-nOyCoX1rm5S,https://www.youtube.com/watch?v=Y4wyPxlqOyg,Verve,
Cinderella in 2018,21/09/2017,5kajdyYzE6Ey1XfhzHqQNCvTnZSOZGNX,https://www.youtube.com/watch?v=B-4NzZc58Jo,Cinderella,
Cinderella in Brisbane,,p0OXhsMDE6-MhLGLL3Qj4jbOCsiJID5M,https://www.youtube.com/watch?v=9FLQKQv-WIw,Cinderella,
CINDERELLA'S ABSURD STEPFAMILY,26/03/2019,9qazZpaDE6o8OzaKZz_Jiq5Oz2VW_i7I,https://www.youtube.com/watch?v=MaIeFNqyL2o,Cinderella,
Cinderella is coming to Sydney,5/10/2018,BtNmRkZzE6eYEH1ZLur_BasrShKcZH25,https://www.youtube.com/watch?v=fyX858QQfJA,Cinderella,
Bodytorque 2019,4/9/2019,FxNnBmaTE68M_dKyfGTAY48C0gDjfrpa,https://www.youtube.com/watch?v=SoHXlSOyfM8,Bodytorque,
bodytorque: atelier,21/02/2018,85aWFmZTE6qoE_6Ab-RFL79HBml42DMc,https://www.youtube.com/watch?v=SoHXlSOyfM8,Bodytorque,
Graeme Murphy's Swan Lake,1/2/2017,M1dmViOTE6d2Cww7K6iftgvv9Irhjm3p,https://www.youtube.com/watch?v=Ocwa_7Can2k,Swan Lake,
ABC Classic 100: Scene from Swan Lake,6/6/2018,F5aXloZjE62bDlpwwnZkGr9D5FZgMgIl,https://www.youtube.com/watch?v=CtKatIqiUhY,Swan Lake,
Swan Lake,22/12/2015,Q5MXdueTpUPpD0I4dlQLufOr0ZSItqid,https://www.youtube.com/watch?v=SSbwAPsb6NM,Swan Lake,
Becoming Odette,16/03/2016,5uc3YyMjE6mQ0v2QxyLCTOroTFUhEKM-,https://www.youtube.com/watch?v=CttzakWaqH8,Swan Lake,
Dressing the ballet: Swan Lake,16/03/2016,F1d3UyMjE6tBiCQm0aufD5s0tGNaVbea,https://www.youtube.com/watch?v=Gmz5N_9mbLU,Swan Lake,
JiÅ™Ã­ KyliÃ¡n's Forgotten Land,6/4/2016,U0cDdtMjE6Jf-3nYkP1Mnf9DO6vPg-LX,https://www.youtube.com/watch?v=RaVj0-1AE5I,Forgotten Land,
ABC Classics: Dance of the Sugarplum Fairy,7/6/2018,5oMTdpZjE6zIVGpVIaAV-4vqJqV9hbrq,https://www.youtube.com/watch?v=zYuzDbF2jpY,The Nutcracker,
A Merry Ballet Christmas: Nutcracker Style,,p1Ym14aTE6N0FRcZY4lXlUpdDd6OvJRl,https://www.youtube.com/watch?v=dnubwDBXlFM,The Nutcracker,
BEAUTY: THE ULTIMATE BALLET EXPERIENCE,1/2/2018,pwYTg3ZTE6naZQMHKkagv2Q1z39HpDO8,https://www.youtube.com/watch?v=JQIxxcOgip0,The Sleeping Beauty,
The Sleeping Beauty: Aurora,15/03/2016,I5ZzMyMjE6O8Tp79HKmleOpa8h9KJczM,https://www.youtube.com/watch?v=DXW11tLgj0k,The Sleeping Beauty,
The Sleeping Beauty,13/07/2018,QxdGxxZjE6xbFCq_vQw5rbjth9riPjDS,https://www.youtube.com/watch?v=e7jiR8lG6Ec,The Sleeping Beauty,
The Sleeping Beauty,26/09/2016,piY3UzNjE6zVAVN-Egfpi2N8GJsuUpGj,https://www.youtube.com/watch?v=CaLs4lD3nH4,The Sleeping Beauty,
The Sleeping Beauty: The Prince,15/03/2016,syNjQyMjE6F0UQmyt8YatA89JsA2Ail0,https://www.youtube.com/watch?v=Q4YNVMVU-QM,The Sleeping Beauty,
The Sleeping Beauty sparkles,4/5/2017,Q0eWUyYjE6oQJXexenCQqaiHwxUMosMR,https://www.youtube.com/watch?v=CvO_qf8QO8U,The Sleeping Beauty,
The Sleeping Beauty - Creating Beauty for the stage,,MxaGJxOTE6axAcZTGH01qm9h1PmngApJ,https://www.youtube.com/watch?v=qy4FjX5cV7E,The Sleeping Beauty,
The choreography of Beauty,,lpODUzYTE6L56jhfvYRJDXxeYDKCRsf4,https://www.youtube.com/watch?v=JQIxxcOgip0,The Sleeping Beauty,
The Sleeping Beauty Awakes,,95dmZvYzE6WwwiidPstdam3WQ49AVPXJ,https://www.youtube.com/watch?v=2_s5K0kY4QU,The Sleeping Beauty,
Behind the Scenes with The Sleeping Beauty,,pjdWliOTE6l7PlkElWr3JrY7vpZ5jOtX,https://www.youtube.com/watch?v=dkBy2BO7DdQ,The Sleeping Beauty,
The Sleeping Beauty Awakes,15/03/2016,IxYjQyMjE6hDzEzSw3wLLX7NWs1TT35v,https://www.youtube.com/watch?v=2_s5K0kY4QU,The Sleeping Beauty,
BEHIND THE SCENES OF THE SLEEPING BEAUTY,1/2/2018,15OTg3ZTE6oHwjvYnSzVM4fOB49pH1lb,https://www.youtube.com/watch?v=dkBy2BO7DdQ,The Sleeping Beauty,
The Sleeping Beauty Awakes,16/02/2018,FwczhkZTE6khfM0v6PStl8Ne96_LBR35,https://www.youtube.com/watch?v=2_s5K0kY4QU,The Sleeping Beauty,
The Merry Widow,21/09/2017,dmZjdyYzE6TJYdox-vHrNMkkcLoVZplT,https://www.youtube.com/watch?v=GjzGpEOraPc,The Merry Widow,
Murphyâ€™s Nutcracker comes to life,23/05/2017,lxMzRiYjE6pSxHnqAjx2BjLLJ4k4T1AP,https://www.youtube.com/watch?v=7yl5GMNUjn0,The Nutcracker,
THE NUTCRACKER,21/09/2018,M0dnM5ZzE6p1vLrt924Z5Moi8117_6Ba,https://www.youtube.com/watch?v=BvCOxVSvc30,The Nutcracker,
Alice's Adventures in Wonderland,21/09/2018,Nic3M5ZzE62ikFUp842IjHCDsbNB4wvZ,https://www.youtube.com/watch?v=T7AQvPY8znk,Alice's Adventures in Wonderland,
Alice's Adventures in Wonderland,26/09/2016,9ib3UzNjE6KNMLPEYri9TncfERgKxVE-,https://www.youtube.com/watch?v=NNMhuhdvadI,Alice's Adventures in Wonderland,
THE QUEEN OF HEARTSâ€™ MARRIAGE TIPS,2/5/2019,hzbHRwaDE6FsjZsylqjMxao77oSIvt1a,https://www.youtube.com/watch?v=sutQwtgxaHU,Alice's Adventures in Wonderland,
BREAKING NEWS: WHO STOLE THE TARTS?,10/5/2019,o1OWtyaDE69_nD1HKZ124gPSo6UkK3zg,https://www.youtube.com/watch?v=7Qaotuw6Rys,Alice's Adventures in Wonderland,
Getting Set for Alice in 2019,30/11/2018,M3MTVyZzE6evA5eUhZjAJ0hP6DQUsGJq,https://www.youtube.com/watch?v=9yB5-XmnBj0,Alice's Adventures in Wonderland,
Peek down the rabbit hole ...,17/01/2017,E4OTN5ODE6mz41UI3U5vz3x71lrIFXyL,https://www.youtube.com/watch?v=9yB5-XmnBj0,Alice's Adventures in Wonderland,
ALICE'S ADVENTURES IN COSTUME,19/07/2017,8yMG15YjE6pOS0oq313bOna-Ao3YiTag,https://www.youtube.com/watch?v=1pDUnRw3HFI,Alice's Adventures in Wonderland,
Alice's Adventures in Wonderland,7/12/2016,V4b2EzODE6_spQZq1JcLjyuKXKd5QMGC,https://www.youtube.com/watch?v=4TzKXS0r2nU,Alice's Adventures in Wonderland,
Illustrating Alice,6/9/2017,drYTJrYzE6fFdSFk7JmcJaB6CI_jgFv_,https://www.youtube.com/watch?v=gSmxwrtgjCI,Alice's Adventures in Wonderland,
THE VERY SPARKLY CATERPILLAR,10/4/2019,o1eGlsaDE6vX54rJ-naEFBBQC5-BJCil,https://www.youtube.com/watch?v=0ssnBcS85jE,Alice's Adventures in Wonderland,
Getting set for Alice,23/08/2017,EyanRkYzE6bsXydz2l1NALhm-ktM-Zku,https://www.youtube.com/watch?v=9yB5-XmnBj0,Alice's Adventures in Wonderland,
Spartacus in the Studio,17/08/2018,A1eWQwZzE6BYqyVzAj-X2Msi0WAHeYki,https://www.youtube.com/watch?v=fj-c2v3Sn4Q,Spartacus,
SPARTACUS,13/02/2018,IwcTJjZTE62TPfbbf9lkoIneWxXSdrkB,https://www.youtube.com/watch?v=JfCPPW2O6eA,Spartacus,
Spartacus in 2018,,BkZ3hmZDE6FmquJgFYhfYtCR5FV9jydh,https://www.youtube.com/watch?v=JfCPPW2O6eA,Spartacus,
Designing Spartacus,22/12/2017,11MDJyZDE6ui399-KUpjlTH2j9OJcqL9,https://www.youtube.com/watch?v=eU_wjxjF6AQ,Spartacus,
Spartacus in 2018,,5waDdyYzE6PSIly8Ls1qu3hAyg3YEu_l,https://www.youtube.com/watch?v=JfCPPW2O6eA,Spartacus,
The Women of Spartacus,13/11/2018,prNHNtZzE60J_9OPxI_IXpasc4PHVgLY,https://www.youtube.com/watch?v=qdnERT-XHkA,Spartacus,
Spartacus: The Choreography,1/5/2018,ozcW43ZjE6nuu7aWMnVWPYX1cf1VwA-B,https://www.youtube.com/watch?v=jtHpV-_7IxE,Spartacus,
Designing Spartacus,,5iMzJwZDE66RYrrZf4lihaFwy-5RAOAH,https://www.youtube.com/watch?v=eU_wjxjF6AQ,Spartacus,
Spartacus rehearsals,,NsNjZqZTE6lbHLnqiXU7XthfJEtXY4mt,https://www.youtube.com/watch?v=tj2VBAcKBcE,Spartacus,
BUILDING SPARTACUS,3/9/2018,02OGM0ZzE6lzYvCAZhlhPe3S4ZfcHmF8,https://www.youtube.com/watch?v=6_UAX6elgOs,Spartacus,
Spartacus is coming,18/12/2017,B3aTJwZDE6S8Ba7LRKv7ZPUkZCCcOTzb,https://www.youtube.com/watch?v=3aErEtQNRmA,Spartacus,
DRESSING SPARTACUS,10/7/2018,o5NXdwZjE6E2ET1UNE8_kWsRErYQCnGR,https://www.youtube.com/watch?v=TVUH8rdQTEU,Spartacus,
I am Spartacus: Kevin Jackson,14/09/2018,01aXY2ZzE65rJ79uJVjvqFGiHbPd713f,https://www.youtube.com/watch?v=uihagPsB65c,Spartacus,
Storytime Ballet: CoppÃ©lia,30/08/2018,A2MGozZzE6dL4FL5u64ybw8aOgRtxznE,https://www.youtube.com/watch?v=Ym8QxZBHxyc,Storytime,
Ballet for Kids: Storytime CoppÃ©lia,27/02/2019,1kOTNjaDE67wkcHtOrsBhyt03q-8Cbgg,https://www.youtube.com/watch?v=bodlJXvO3Ss,Storytime,
Behind the Scenes of Storytime Ballet: The Nutcracker,,5wbTFvNjE6d4ztpEoN8HxVjFQRIhvnYs,https://www.youtube.com/watch?v=a0-cTbbZbJk,Storytime,
Storytime Ballet: The Nutracker 15s TVC ALL,4/12/2019,M1cnV1aTE6DA4_QKGPo-9yUup7ocBtcE,https://www.youtube.com/watch?v=vSLDRP6HamA,Storytime,
Storytime Ballet CoppÃ©lia,15/02/2019,M0ZW05aDE6t0u4U_I6-iDmBYxZx78SL2,https://www.youtube.com/watch?v=Ym8QxZBHxyc,Storytime,
STORYTIME BALLET: FROM STUDIO TO STAGE,9/4/2019,0wOGFsaDE6Pijco4rGE5O9f7vmJQHzoh,https://www.youtube.com/watch?v=OXhGX5kACCw,Storytime,
Storytime Coppelia: Road to Sydney Opera House,3/10/2018,g5MnJjZzE6a0_0DMPRXRZ3-D3_WSUF_u,https://www.youtube.com/watch?v=3gWA-HzkpJc,Storytime,
Behind the scenes of our Storytime Ballet: The Sleeping Beauty,15/03/2016,EwaTQyMjE6fyfVOvBZ2dTwjqywYgotfx,https://www.youtube.com/watch?v=dhn7TI4JxD8,Storytime,
Storytime Ballet: The Sleeping Beauty,,ozYzAzMjE6OCytiuWn6COol0K7ZKGVgR,https://www.youtube.com/watch?v=N1yCgcjIqKA,Storytime,
KIDS ON COPPÃ‰LIA,27/11/2018,ppNGVxZzE6kdBjBvW-c1jgaVIQ3RK4sK,https://www.youtube.com/watch?v=m7qdFFmXBt4,Storytime,
KIDS ON COPPÃ‰LIA,5/2/2019,9hcTg3aDE6HhLEsQwl0WLh9HUmMtMfBc,https://www.youtube.com/watch?v=m7qdFFmXBt4,Storytime,
REGIONAL TOUR 2019: BEHIND THE CURTAIN,1/7/2019,h5d2QzaTE67XFLQxj9JbNNWL6zSEKim3,https://www.youtube.com/watch?v=2j1FnGXzKXc,Regional Tour,
WA Tour 2019,30/09/2019,9yZmFraTE66n01pQysBYSbTT1AAy2iH_,https://www.youtube.com/watch?v=UNWHRH5ZoA8,Regional Tour,
Regional Tour 2019: CoppÃ©lia,14/05/2019,RucWFzaDE6dbUJ1L4K1Bx1xJYGXT1o4b,https://www.youtube.com/watch?v=WC13KUebpxE,Regional Tour,
Experience Wonderment - Season 2017,26/09/2016,lkZHQzNjE6z7jt1BvXGw5MUd0I-mK44K,https://www.youtube.com/watch?v=Z_pRMS11Oh4,Brand,
A Season of Wonderment,28/09/2016,k1Yjc1NjE6Fkr9AYPGdIpWcdK9bzK7NW,https://www.youtube.com/watch?v=O6GqxnAVyhE,Brand,
Season 2020: A Year of Limitless Possibilities,18/09/2019,s5bDRpaTE6hcpWTXmR26P9mLtuSeWBJY,https://www.youtube.com/watch?v=leisfuOMalA,Brand,
2020 Season. A Year of Limitless Possibilities,17/09/2019,0zOXZoaTE6p3s-x5pUvbz68f3GhIAQyp,https://www.youtube.com/watch?v=leisfuOMalA,Brand,
Let Us Enchant You: Brand Film,21/09/2018,xmYXU5ZzE63lHVNBJDMRStBpDb0SzQm7,https://www.youtube.com/watch?v=hBW4CnPjQMo,Brand,
Behind the scenes of 2018,23/10/2017,wxbmw0ZDE6hBAwiACg4oVHXyZSKt7TKu,https://www.youtube.com/watch?v=RPxCYIlPCRg,Brand,
Behind the Scenes of 2017,26/09/2016,0wZHUzNjE6z1HTMaamnNdUGJlFJOIpHA,https://www.youtube.com/watch?v=Dd4TKEFd2ds,Brand,
Our Year of Beauty,21/12/2015,5ocGNueTrnQyj-QDmeVAxZvEdfgc5bEe,https://www.youtube.com/watch?v=6Xa3BWmyk2Q,Brand,
Season 2019: Year of Enchantment,21/09/2018,wwM3U5ZzE6xe6BARM3dZabZ_HvQQkaAj,https://www.youtube.com/watch?v=O0d3gI-m8SU,Brand,
Our 2018 Season,,ZxaGNyYzE6GQBiaROsvcb-xSsiBIctaw,https://www.youtube.com/watch?v=bRrxiKT20Cc,Brand,
Wrapping Up 2017,,lsbGRxZDE6TjEUWQOumajrvpoV1aujEL,https://www.youtube.com/watch?v=JIeQZJCCH4M,Brand,
Power to Transform,25/02/2016,NyMDJhMTE6De-lCQrQ34u5_-MuXk9VCu,https://www.youtube.com/watch?v=bXUwVyygmXI,Brand,
The Power of Imagination,21/09/2017,11d2JyYzE6bQaAwSXg3T0iMzM0wjXAmr,https://www.youtube.com/watch?v=QlQtLgqqSOE,Brand,
WRAPPING UP 2018,18/12/2018,BxbHN2ZzE6bE2eWBr2C1aqUUxrnjVHjl,https://www.youtube.com/watch?v=bRrxiKT20Cc,Brand,
Our 2017 Season,21/09/2016,A0d3UwNjE6UP9cCEhV1bWkH6JojNtabt,https://www.youtube.com/watch?v=Z_pRMS11Oh4,Brand,
WRAPPING UP 2018,18/12/2018,xpZHV2ZzE6FY-e1nVJ4aTWzIA47eotxW,https://www.youtube.com/watch?v=bRrxiKT20Cc,Brand,
2020 Season Overview,19/09/2019,w3amFpaTE6_SnzeUqG9VEsvzFBEWcpYk,https://www.youtube.com/watch?v=MqBhVP9cUlI,Brand,
2016 The Power to Transform,22/12/2016,U0eWFpODE6rMQzbSNSnRcEIiQ85WUKGh,https://www.youtube.com/watch?v=bXUwVyygmXI,Brand,
Our 2016 Season overview,,JxZ21nMjE6U7Aie-GB97uhRiU4awqX8p,https://www.youtube.com/watch?v=bXUwVyygmXI,Brand,
Our 2018 Season,16/10/2017,d1ZXMxZDE68H9P_BF5RJVoLhDGaYoiup,https://www.youtube.com/watch?v=QlQtLgqqSOE,Brand,
Wrapping Up 2019,,l3NWV4aTE6MCfcf6LLnsdRPySOJzuPyx,https://www.youtube.com/watch?v=BuqwJCQqTQs,Brand,
Meet Principal Artist Lana Jones,4/2/2016,80ZXRuMDE6OFNWG64NL7i9_t8IXcQLpS,https://www.youtube.com/watch?v=fb5rXHoj0nY,Artists,
Robyn Hendricks,1/11/2019,w1dXFwaTE6MDG_6r2UfFWVZ1nf4iOfLc,https://www.youtube.com/watch?v=qpgSwmvfNmw,Artists,
Principal Artist Kevin Jackson,21/03/2016,doYmo3MjE6I0tsT1rTtt2-SiXJsm7O5G,https://www.youtube.com/watch?v=SBPvhDsvFgw,Artists,
Principal Artist Ty King-Wall,21/03/2016,N1ZWo3MjE6cL_l6047kjjv-kODBjIJTY,https://www.youtube.com/watch?v=rCntFLEe6GE,Artists,
10 Questions with Andrew Wright,19/05/2017,Rzbjg5YjE67cvbB-vQ9onvxJnQact8RK,https://www.youtube.com/watch?v=Q3JbXT3gvPw,Artists,
Principal Artists Robyn Hendricks,14/02/2017,ZkcTlwOTE6jdhybS-8Pi0s7SYC1wnUJI,https://www.youtube.com/watch?v=qpgSwmvfNmw,Artists,
10 Questions with David Hallberg,30/08/2017,h4eTFoYzE6z183txeCb5fLTJyfupPP2u,https://www.youtube.com/watch?v=GXqDBoHKcXg,Artists,
Meet our Principal Artist Ako Kondo,11/1/2016,Y4MTc0MDE6oFsNniyXdbNPSIfY4DWLSV,https://www.youtube.com/watch?v=eU_wjxjF6AQ,Artists,
10 Questions with Natasha Kusen,9/3/2017,c3YzE4YTE6LQK-Ghj0LAHQKVKXmvv9_7,https://www.youtube.com/watch?v=preYgrdx6As,Artists,
Choreographer Richard House,5/7/2017,JnbDR0YjE6Q7aN-7TT9c3kExX5elzpQ3,https://www.youtube.com/watch?v=tLf4hV-Zw1Q,Artists,
Kevin Jackson: In his element,6/7/2016,A3NnJrNDE6T_nU1QRctKdVFuJlIRvA1p,https://www.youtube.com/watch?v=FJIW0tnULi8,Artists,
Principal Artist Chengwu Guo,22/03/2016,xpdTQ4MjE6cKL9lo9I90TL8e-XszuK_u,https://www.youtube.com/watch?v=FZ9eGXDwf2k,Artists,
Principal Artist Amber Scott,22/03/2016,dtdTQ4MjE6-SrAW4ZYEER1Zt7ZuPxH1r,https://www.youtube.com/watch?v=F6GWHJQjX5w,Artists,
Principal Artist Ako Kondo,21/03/2016,0xZmo3MjE6gXQX3TKTc7EBJFl445E-1O,https://www.youtube.com/watch?v=GNhdqqspdZI,Artists,
10 Questions with Amy Harris,11/4/2017,ludWlxYTE6Zcm9oVzC5mNW_7dmLuX-Z8,https://www.youtube.com/watch?v=adx50BI7em8,Artists,
Principal Artist Adam Bull,21/03/2016,4xaGo3MjE639bdimGtGv31gkpPCQ4TvH,https://www.youtube.com/watch?v=QsWQ4saRbKs,Artists,
Meet our Ballet Master and Repetiteur,11/1/2016,ZtNTc0MDE6rkTO1vs6VmgNTPKkCi9ZrX,https://www.youtube.com/watch?v=ZD3-U5YKfu4,Artists,
Meet Principal Artist Chengwu Guo,23/03/2016,YybTRhMjE6Vd-VVZtJ-pwdKFGZL3VdI8,https://www.youtube.com/watch?v=FZ9eGXDwf2k,Artists,
Principal Artist Lana Jones,21/03/2016,NoZGo3MjE6zXNmk5qbC50s5fOVe1VPwF,https://www.youtube.com/watch?v=9lmo7xZgOlo,Artists,
Principal Artist Leanne Stojmenov,21/03/2016,I1aGo3MjE6I9zbXKNZPsGipGn0iWcxFf,https://www.youtube.com/watch?v=IMw5lgF0Em4,Artists,
Principal Artist Amber Scott,2/7/2018,EyNThvZjE6gPN1rrsJ5pEDVUui2lltU5,https://www.youtube.com/watch?v=F6GWHJQjX5w,Artists,
PRINCIPAL ARTIST BRETT CHYNOWETH,29/04/2019,dwNDlwaDE6OO0Jrc72GC75Hs9mvJPurP,https://www.youtube.com/watch?v=LgcZfUdWnZw,Artists,
PRINCIPAL ARTIST AMY HARRIS,29/04/2019,ViODlwaDE6ui6b_yWHnxoGHecafY_pbg,https://www.youtube.com/watch?v=WPCUbTURZZ8,Artists,
Principal Artist Andrew Killian,21/03/2016,ZsZGo3MjE6ThNvzgfgOokjUh_FOlCLB-,https://www.youtube.com/watch?v=3oWaaJG3yeQ,Artists,
Brett Chynoweth,1/11/2019,MzdXFwaTE6n1Cleh73OAf8AymETsz437,https://www.youtube.com/watch?v=LgcZfUdWnZw,Artists,
Principal Artist Leanne Stojmenov Takes a Final Bow in 2018,4/1/2019,45bHV5ZzE6Ew-PJCawDquuM85hCBpVmD,https://www.youtube.com/watch?v=k1UUNcIiU94,Artists,
Principal Artist Lana Jones takes a final bow in 2018,4/1/2019,Rta3V5ZzE6EG8gNsCqtIwPtrBo3Dq5_d,https://www.youtube.com/watch?v=j6-ydpfd-Dc,Artists,
Meet our lady's cutter,11/1/2016,xyMjc0MDE6OKknHAygXGbAN70zNgbvUU,https://www.youtube.com/watch?v=DjKm8Ul4ZAg,Artisans,
Journey of a Costume,15/03/2018,RoNDJwZTE6ppNxAj3TOhNQsyyaBQk_ve,https://www.youtube.com/watch?v=Jqpwm-xdc8I,Artisans,
Our Artisans,23/09/2016,Azd2YyNjE6-0oCoz2vG5Iaodnv2199s_,https://www.youtube.com/watch?v=DeXHxxlBWIw,Artisans,
Journey of a Costume,,9meXhvZTE6WfMOPJslEEeTJtpQ2F1e9K,https://www.youtube.com/watch?v=Jqpwm-xdc8I,Artisans,
Meet our Wigs Supervisor,11/1/2016,tscTc0MDE6GGppR6HMt5ayRD8D0GmrIi,https://www.youtube.com/watch?v=gozV14Ime1k,Artisans,
Ballet Anatomy: Feet,1/5/2018,V5Zm43ZjE6P1eUAcb33L0TX1D_AI9YY6,https://www.youtube.com/watch?v=FYwntsUota0,Ballet Anatomy,
Ballet Anatomy: Muscles,13/04/2018,9hNGowZjE6DWSq4KR4blkQHhNUT-ndpW,https://www.youtube.com/watch?v=98NhBFYOrk4,Ballet Anatomy,
Ballet Anatomy: Eyes,14/06/2018,VuN3VqZjE69G-6LKNbIOR6x_437atWCK,https://www.youtube.com/watch?v=CpP8XDtySGI,Ballet Anatomy,
Ballet Anatomy: Hands,21/05/2018,xhYm5kZjE6CaHBGoYNqS2ccsoaJGW7Kw,https://www.youtube.com/watch?v=ylyEjndFa-c,Ballet Anatomy,
My Workout Tips with Evie Ferris,21/11/2018,l5YzdwZzE62ZMUqOG9rwYUDkUj4ccvao,https://www.youtube.com/watch?v=oMoEdTY5zKs,Health,
Meet our Body Conditioning Specialist,16/03/2016,FoNngyMjE66hGVokKVAXTJswxDP1qMR_,https://www.youtube.com/watch?v=q9jEQEVkFAE,Health,
Health and lifestyle,8/1/2016,5scmcyMDE6Kt-V33RQhADl5ysIwekORG,https://www.youtube.com/watch?v=779HgCRhEJQ,Health,
Meet our Principal Physiotherapist,11/1/2016,ttcjc0MDE6amj0rAHRLN70FTirCMg8QJ,https://www.youtube.com/watch?v=PoN7luBVBa8,Health,
The ballet body,14/01/2016,gxeGE2MDE6yYLk14K0mqEEdo3mJMEcLP,https://www.youtube.com/watch?v=G_hn3UbT4zw,Health,
En Pointe: Lisa Craig,,RpaDdsZjE62P3Jn2aFUuR-rP1YTMXeDQ,https://www.youtube.com/watch?v=tj2VBAcKBcE,En Pointe,
A TO Z EN POINTE,27/11/2018,g1Y2RxZzE6m-VLy8N31BsFxD4c6eO0Fg,https://www.youtube.com/watch?v=iappqIblCcI,En Pointe,
En Pointe: Jade Wood,21/06/2018,B5dmhsZjE6CK5V2qzI5eeuRToLvEubGS,https://www.youtube.com/watch?v=GLY4uGi2TPU,En Pointe,
En pointe!,8/1/2016,FtdWcyMDE6YJOuq5IZ8p7c1-HdxRgjgT,https://www.youtube.com/watch?v=P1w8zbEf_Qg,En Pointe,
En Pointe with Jade Wood,4/7/2018,kzb3FvZjE6S9URcHJy34aIj6tpA1sYUU,https://www.youtube.com/watch?v=GLY4uGi2TPU,En Pointe,
Men en pointe,8/1/2016,o5ZmcyMDE62KEYAG2awrb2oz1xrNcpA_,https://www.youtube.com/watch?v=2m5qdnl3Igs,En Pointe,
En Pointe with Lisa Craig,24/07/2018,MxaWp0ZjE60UyxG1R5gRf-NdgstMtY9C,https://www.youtube.com/watch?v=tj2VBAcKBcE,En Pointe,
En Pointe: Lisa Craig,21/06/2018,12c2hsZjE61sNJ0yxpVLmDOrSgQlvuQU,https://www.youtube.com/watch?v=tj2VBAcKBcE,En Pointe,
En Pointe Obstacle Course,24/10/2019,wwZWFvaTE6D8S1_UKAGYluFudpcBdhGo,https://www.youtube.com/watch?v=J84fjrJGP6g,En Pointe,
2019 Telstra Ballet Dancer Award Nominees,3/9/2019,d4d2lmaTE6QRn5VqV5Se89M2rA0ciBzS,https://www.youtube.com/watch?v=bfvxNzAijjs,TBDA,
2018 Telstra Ballet Dancer Award Nominees,23/08/2018,I5bXExZzE69Drv_GfZq3-FJmvow3XSjv,https://www.youtube.com/watch?v=isfFbsETGCw,TBDA,
Pointe Shoe Room,15/03/2016,h3eDUyMjE6K8ufblfY1Vgd8Cm5Lff5zy,https://www.youtube.com/watch?v=YqT0JsFBwc4,Pointe Shoes,
BENEDICTEâ€™S POINTE SHOES,6/8/2019,hpamhhaTE6xKggrlE2gz7ts_mrCHKQBD,https://www.youtube.com/watch?v=OB2jPxXwu8w,Pointe Shoes,
The perfect fit,4/2/2016,BlbGtuMDE6wNf6c6PPWfxqu6pnE7YbUY,https://www.youtube.com/watch?v=ndJT20V5iY4,Pointe Shoes,
Anna Karenina 2020 Trailer,17/09/2019,N4cnZoaTE6bUE7Qiao6VzAqQiLSreN3V,https://www.youtube.com/watch?v=PEHmDgrC9UE,Trailer,
Volt 2020 Trailer,17/09/2019,5tc3ZoaTE6gOFJSrUKyDyO21pXHlQjzQ,https://www.youtube.com/watch?v=rgYCDmtP0CQ,Trailer,
Harlequinade 2020 Trailer,17/09/2019,owc3ZoaTE6ImE7xxQJkNmhGbwKGZjIBc,https://www.youtube.com/watch?v=TJQ03e0Vksk,Trailer,
The Happy Prince 2020 Trailer,17/09/2019,Jlc3ZoaTE6E2-GsWb4sGQOGqIT-ty2P5,https://www.youtube.com/watch?v=o8zOraiueu4,Trailer,
Molto 2020 Trailer,17/09/2019,tjc3ZoaTE6GB22L5PAS9Fob8K8cYTjlm,https://www.youtube.com/watch?v=uu0QCC8PTfs,Trailer,
The Merry Widow Trailer,13/04/2018,Exb2kwZjE6ZKm95CBwiC-XT9okDVqerJ,https://www.youtube.com/watch?v=lmexPVfSM58,Trailer,
Nijinsky Trailer,25/07/2016,N0dzR4NDE6VrMnlaWSpwFbmxssRy10FM,https://www.youtube.com/watch?v=lzwlYpglzz0,Trailer,
SPARTACUS TRAILER,6/7/2018,Y1ajZwZjE6rB4tDMudKUQ1Q5nbyZveXr,https://www.youtube.com/watch?v=S6AcjIDVmfg,Trailer,
SPARTACUS TRAILER,28/06/2018,ZsdjhuZjE66Iqy_0xUrUpe6tH-tRbPpi,https://www.youtube.com/watch?v=S6AcjIDVmfg,Trailer,
Ballet ignites activewear,7/2/2017,VsMXVoOTE6kWEbeKMUB2eHPP7wRif9o1,https://www.youtube.com/watch?v=LvSbGstXRxM,Merch,
Music of the Ballet: MCG,22/03/2016,pjNTk4MjE6f1lbZBs2CDQXmQl6PAQnGp,https://www.youtube.com/watch?v=8r7eOzveUdU,Music,
Nicolette Fraillon on Sleeping Beauty,27/04/2016,IzZTM1MzE6RaWPkWbLNNyol3BZy0bQ7M,https://www.youtube.com/watch?v=Jho9qvIcbbY,Music,
Nicolette Fraillon on Tchaikovsky's The Sleeping Beauty score,19/06/2017,o3eGVtYjE6VQVIN6H1FlLcfLwx8ukcFD,https://www.youtube.com/watch?v=Jho9qvIcbbY,Music,
Music of the Ballet: NGV,22/03/2016,RrMzk4MjE6bNCWk3XK86pfy73yc2-sGf,https://www.youtube.com/watch?v=k4Wfy4yDK1M,Music,
Music of the Ballet: State Library,22/03/2016,ZhMzk4MjE6ol_XpTqj8AQlML_fjOLDce,https://www.youtube.com/watch?v=IWFwACqrgRM,Music,
The Music of The Nutcracker,30/09/2019,1zaWFraTE6vCofX4Bj4odYJ4jobzHhHq,https://www.youtube.com/watch?v=kFzvt_VIBrQ,Music,
On the mOVe!,13/11/2017,tnM3VjZDE64oPNc4RPy6XhrZLH63s-6P,https://www.youtube.com/watch?v=g3-aRrBQJvo,Music,
Orchestra Victoria: Bendigo Festival 2018,5/7/2018,RmeXdvZjE62DfXkNvSzYfrxCCyN8bOar,https://www.youtube.com/watch?v=R3-FQ2SaccQ,Music,
Nicolette Fraillon on CoppÃ©lia,27/04/2016,d0bTM1MzE6ftfYEG744ljYYvfuLsBHTv,https://www.youtube.com/watch?v=s1NsW1p12JE,Music,
Nicolette Fraillon on Cinderella,27/04/2016,N1bjM1MzE6Oj9J4gl_gq9I0ArVV_cBiQ,https://www.youtube.com/watch?v=bIjWd0bPA54,Music,
Nicolette Fraillon on Swan Lake,27/04/2016,5vZDM1MzE6cscdZayo9ZcchRTx2InWzw,https://www.youtube.com/watch?v=QXj4pSumbUI,Music,
Nicolette Fraillon on the epic Spartacus score,20/06/2017,ExN3VtYjE6RHySxd_5n267TEh-Ku3_H8,https://www.youtube.com/watch?v=YFzsqqaDkds,Music,
Nutcracker - The Story of Clara Trailer,27/04/2017,kxZHl4YTE6c1VN1fvzcyBXaqijBkPyP8,https://www.youtube.com/watch?v=sG0u3eg5sDM,The Story Of,
The Story of The Sleeping Beauty,8/11/2017,d4eXVhZDE6UUgpSUzGErNGCh6qw__Fvm,https://www.youtube.com/watch?v=Xx52wDCtD0A,The Story Of,
The Story of The Nutcracker,14/03/2017,tlMTJiYTE6zYgYay1OtqKDOvODh_qrY6,https://www.youtube.com/watch?v=hwTtxAn0c00,The Story Of,
The Story of CoppÃ©lia,6/7/2018,5xbzZwZjE6Xsj20ik28uSApug2uxPY5z,https://www.youtube.com/watch?v=NVo6u0yp-c0,The Story Of,
The Story of The Merry Widow,1/5/2018,dhZm43ZjE6LDQZ7cdFlUE5yPfqlzKsAM,https://www.youtube.com/watch?v=lmexPVfSM58,The Story Of,
The Story of CoppÃ©lia,14/09/2016,dueGN2NTE676GO7LLBoIZ8qlGDHFEwbC,https://www.youtube.com/watch?v=NVo6u0yp-c0,The Story Of,
TOUR OUR PRODUCTION CENTRE,3/9/2018,ZsdGM0ZzE6C6g7PLT2CwaZW5ylFqS6pQ,https://www.youtube.com/watch?v=wKn-UhQQyuY,AEP,
Visit our Production Centre,24/03/2016,lkYjNiMjE6wjPzG7DEB7PXDYUroF0Drl,https://www.youtube.com/watch?v=fqbtMhXVtwA,AEP,
Step Inside: Firebird Program,4/4/2018,Rpamt2ZTE6dzZ2Y02IW1MbL9CC_eiQMW,https://www.youtube.com/watch?v=DH7nzBj4UQ8,AEP,
Step Inside the Ballet,15/03/2016,dtNDgyMjE6BQE3jHuqj9KI8EdhFnG_XB,https://www.youtube.com/watch?v=KpOPyHz7Tpg,AEP,
Boys Day,29/03/2016,t4ZXJlMjE687D1R-tiNbN-JR1htKI3V7,https://www.youtube.com/watch?v=skHMTd9-NoA,AEP,
Step Inside Boys' Day,29/03/2016,k3NnJlMjE6Up5CV-Z3K2npFIvMjmSdW9,https://www.youtube.com/watch?v=4lGlPc_MJ4g,AEP,
Step Inside our world ...,28/02/2017,9zODUzYTE68Cv9pw7K8uNIIThowFJk6X,https://www.youtube.com/watch?v=gfc34BIbgp8,AEP,
Road to Studios,1/9/2017,1rb3VoYzE6n0v1wksxjUpv0jCM_H3IBG,https://www.youtube.com/watch?v=J-Dyk8eXqow,AEP,
A look into Studios,24/07/2017,x2bXAxYzE6TRsLiRrccOv-ifTI5PIn1l,https://www.youtube.com/watch?v=hR6-5YRXDHo,AEP,
The Australian Ballet: Studios,3/8/2018,hzYmF3ZjE6KZZ9Lb6kELwkRShe4l_2iB,https://www.youtube.com/watch?v=tFf4ymdMzqc,AEP,
Studios: Leap through the Levels,18/07/2019,dmOG42aTE6QikR9FdvzecGgdCeo4BZ57,https://www.youtube.com/watch?v=Lf-OsArVOOo,AEP,
Behind the scenes of Studios,18/06/2019,RuM2cwaTE6kHk-QujA57TwKcdBzkI90S,https://www.youtube.com/watch?v=cnTU-8WiYbQ,AEP,
Behind the scenes of Studios,21/09/2017,Ztb2JyYzE6EDpi1zUZwaDoSgrUuxAW-U,https://www.youtube.com/watch?v=U8U258LsBnk,AEP,
Studios: Level Three,27/09/2018,N0NTliZzE6dv5h9Ov8m4JEva2q2U_ZqZ,https://www.youtube.com/watch?v=yHwSdOE7LxQ,AEP,
McAllister in Conversation with Emigres,4/9/2017,JxeDhqYzE6lrAUMC8jJQG-bBh5uDKEXl,https://www.youtube.com/watch?v=6Ko9Qi600z0,AEP,
McAllister in Conversation: Graeme Murphy and Janet Vernon,23/05/2017,lodDNiYjE6YCDoWDqz44BMQOZ3iaaMsi,https://www.youtube.com/watch?v=v4fI8MyKbRI,AEP,
McAllister in Conversation: Tim Harbour,23/05/2017,s0aDRiYjE6PhFAZdWuyQC0GqRZsIiihh,https://www.youtube.com/watch?v=SgtB-oiqT-A,AEP,
WHEELDON IN CONVERSATION,13/09/2017,ZoNW5uYzE6KpZxbIJvdm2cz02DfYBdXG,https://www.youtube.com/watch?v=QTV0M0mDO5M,AEP,
McAllister in Conversation with David Hallberg and Gillian Murphy,18/10/2017,4wZ3AyZDE6pVhkK0vg0iDGPcAsk2KRdk,https://www.youtube.com/watch?v=xTWW8Y2-QYY,AEP,
McAllister in Conversation: Gabriela Tylesova,2/2/2018,V2b2s3ZTE6zdksFzNHtIHFPgUCs7-ikb,https://www.youtube.com/watch?v=kuBHy-1IsjE,AEP,
McAllister in Conversation: Lucinda Dunn,31/03/2016,5nYmZnMjE6dI7rG63xmyu1nQgeKVXHzO,https://www.youtube.com/watch?v=KIPDdp3x-7U,AEP,
Behind the Scenes: Class on Stage,4/4/2018,c4NG52ZTE6JcIDUt6fPtgpT-SyLKdjob,https://www.youtube.com/watch?v=Ya3CQbI2rlk,AEP,
A Gala in Adelaide,,I3NjN2YTE62ZzBImntM-DzCiaoFp2Glb,https://www.youtube.com/watch?v=2g5Z_R9-yW8,TVC,
World Ballet Day returns in 2017,19/09/2017,kzb2JxYzE6ZGvZv9iMZuLYdlk_QKTXVe,https://www.youtube.com/watch?v=gEWFcTMiDjI,World Ballet Day,
World Ballet Day 2019 Highlights,25/11/2019,12MWZ0aTE6Ems-8htQOWXThekLebcFAN,https://www.youtube.com/watch?v=Q3UO8gt3MJc,World Ballet Day,
World Ballet Day 2014 Highlights,6/4/2016,pkbDJtMjE6PSjLlFsdgs-vTgtIYjxDxL,https://www.youtube.com/watch?v=_Q49pGO08Ko,World Ballet Day,
World Ballet Day 2017 Highlights,8/11/2017,JscHZhZDE6PWpqJ-6Ww1wUf9sWvu5mV2,https://www.youtube.com/watch?v=J7CH3CxJ20c,World Ballet Day,
World Ballet Day Live,3/10/2016,VibXk1NjE64wyzJkIf-O9KqtwC_z0pP5,https://www.youtube.com/watch?v=62g7IRaUGvk,World Ballet Day,
The Australian Ballet World Ballet Day 2016,27/10/2016,J0b3YxNzE6PTDE-UQ2L16C9tI6jewjsc,https://www.youtube.com/watch?v=62g7IRaUGvk,World Ballet Day,
World Ballet Day 2017,,5neTN4YzE6kO1st0AhkrXwnnfyhuXDjs,https://www.youtube.com/watch?v=J7CH3CxJ20c,World Ballet Day,
World Ballet Day 2017 Highlights_V2,,RhZDRhZDE61v3VylXmqbMqWmpFvRXCtP,https://www.youtube.com/watch?v=J7CH3CxJ20c,World Ballet Day,
World Ballet Day Highlights 2015,16/03/2016,NlaHYyMjE6xesLlXXiQ1j2ZKMf0FderU,https://www.youtube.com/watch?v=xBxGXQhc_4E,World Ballet Day,
World Ballet Day 2018 Highlights,13/11/2018,xxZHRtZzE6aj_gNzbDxpJvmuDYpo3fE_,https://www.youtube.com/watch?v=c-_IotPVjjY,World Ballet Day,
World Ballet Day Returns in 2018,5/9/2018,9veXM0ZzE6L_dhvT9dIdEjtZtSfrOQgr,https://www.youtube.com/watch?v=gAF5P9FHrsU,World Ballet Day,
World Ballet Day 2019 Trailer,15/10/2019,xtcHBtaTE6oUFXC5XKg_amad0x-jcHkS,https://www.youtube.com/watch?v=gEWFcTMiDjI,World Ballet Day,
En Pointe: Amber Scott,7/6/2018,IxdThpZjE6R9hZHy71q6DJuYTFWljfuU,https://www.youtube.com/watch?v=BmxenSltxrU,Philanthropy,
En Pointe: Natasha Kusen,14/06/2018,5ndnZqZjE6yp0glYYnWn30uzBgdyVTFq,https://www.youtube.com/watch?v=v640b_O6Qts,Philanthropy,
AMBASSADORS_XMAS_V3.mp4,,BzbTd4aTE6FOGJ53s9cfGiqiv41Bs79-,https://www.youtube.com/watch?v=xOkwgVDKswo,Philanthropy,
A message from Natasha Bowness and Kenneth Watkins - David McAllister Fund,18/09/2019,U2YTRpaTE6XSWJABmEREPV61uusKbe21,https://www.youtube.com/watch?v=vqmf9P8fuU4,Philanthropy,
A message from Natasha Bowness and Kenneth Watkins,18/09/2019,Y0YTRpaTE6fVf5b7GwY57ruMD8G330EI,https://www.youtube.com/watch?v=bsXirQrJ244,Philanthropy,
Philanthropy: Support Our Dancers En Pointe,,JlbGFnZjE6KFvcG1Gw9wJE5D6hjQaaDx,https://www.youtube.com/watch?v=GLY4uGi2TPU,Philanthropy,
Philanthropy: Support Our Dancers En Pointe,,U0bWpnZjE6m5cTFWbt8kWJWUuCqlUPaa,https://www.youtube.com/watch?v=tj2VBAcKBcE,Philanthropy,
Philanthropy Tax Time Video 3 - Adam and Isobelle,28/06/2019,c2N3YyaTE6JsOqmcegJnJ0KzL9YBNed5,https://www.youtube.com/watch?v=3BNZen-wlwo,Philanthropy,
A Message from Isobelle Dashwood,13/06/2019,FoMml5aDE68hjrCkKyxy1oPC77MJNBs_,https://www.youtube.com/watch?v=pVq_JZs-ddY,Philanthropy,
A Message from Principal Artist Adam Bull,19/06/2019,wzYXIwaTE6-zdBjZQXmstcHT1gwBZhYJ,https://www.youtube.com/watch?v=0lphC9qFCS4,Philanthropy,
An Education Team case study with Shepparton,12/7/2017,NwdnJ2YjE6w0041AOEGlXchU-GoEQvh9,https://www.youtube.com/watch?v=RhDLdjrMojE,Education,
CoppÃ©lia - David McAllister,15/03/2016,xkcjYyMjE6tbzloQkXt9OLgHtSkmwwqf,https://www.youtube.com/watch?v=wUxoktvyMx0,Education,
The Australian Ballet Education Team and Shepparton,,05dnJ2YjE6cqLiWyvdS08xstWwtSng16,https://www.youtube.com/watch?v=tyFnDJCd8FY,Education,
Out There: Discover Dance,,ZmamJsMjE6CcXorU7nZRFvHHE4QUhLd5,https://www.youtube.com/watch?v=5RDzn27GJmc,Education,
A Guide to Classroom Warm Up,15/03/2016,E2MjgyMjE6v4NQNieoswxySfLs7xxgHw,https://www.youtube.com/watch?v=dEr5mqZ9Bqg,Education,
Classroom Warm Up,15/03/2016,dhajcyMjE6PsbVdt3GLzQq0KkqIwGVGV,https://www.youtube.com/watch?v=74pd3VD3FbE,Education,
Head to Toes,15/03/2016,I1dTcyMjE6tnpBJ3tiuu5MoNJgwNPpNg,https://www.youtube.com/watch?v=a1nVe4GpeEc,Education,
Moving Body Parts,15/03/2016,15ODgyMjE6xPNGle97BvjxevOUVtdT1V,https://www.youtube.com/watch?v=Y_QWbZhiKmk,Education,
Cool Down,15/03/2016,9obzcyMjE6U-yh5eZb1smH-JcSP0We1D,https://www.youtube.com/watch?v=CI3y56MrK5M,Education,
The Sleeping Beauty - David McAllister,15/03/2016,dpOTcyMjE63wVeTglscTnx6TL3miucBh,https://www.youtube.com/watch?v=TuS-EiAgfw4,Education,
Miriki Performing Arts and The Australian Ballet,26/11/2019,RnbWx0aTE6uQSsj9-J89dnbHD2wyYdsl,https://www.youtube.com/watch?v=w-ZifpvjuGs,Education,
The Australian Ballet at Ingle Farm Primary,19/06/2017,hrb2VtYjE6KaJI8Gxbk-wIJx2XD_eoCM,https://www.youtube.com/watch?v=OKLxyZkws4s,Education,
Out There: Discover Dance,15/03/2016,RrbzYyMjE6o3259wdjhdRPg54NJqvCy3,https://www.youtube.com/watch?v=5RDzn27GJmc,Education,
Education Program: Governorâ€™s Performance Series,17/07/2018,l2cm1yZjE6eVsDb5ohagC4AZFjj6UgWr,https://www.youtube.com/watch?v=MZmhYK8RB8w,Education,
Education Program Plain Jane,13/02/2019,g0MDI5aDE6AW702akB_216KYRyA_-cyp,https://www.youtube.com/watch?v=Lp3K8nh23mU,Education,
Education Program: Plain Jane,12/12/2018,A2OGN1ZzE61DElkIEyusNz8KgjpxF0dw,https://www.youtube.com/watch?v=Yb5O6YviYmI,Education,
Education Program: Regional Tour 2018 Highlights,12/12/2018,E0ZmR1ZzE6RtBV13lOMENEZ_a81tZorq,https://www.youtube.com/watch?v=D_OGqXmIQ2I,Education,
Education Program: Access Partnership with Sydney Opera House,1/8/2018,k0N3J2ZjE6d7zrXHIY9pGf6DDR9yxVud,https://www.youtube.com/watch?v=kEjQjWKx4xs,Education,
Education Program: Wangaratta Tour,5/10/2018,0yYWRkZzE6pI9sEH78yBbenjfanDCCTq,https://www.youtube.com/watch?v=44U31vVQdaA,Education,
Education Program: Regional Tour Part I,12/12/2018,9hbWN1ZzE6eNwS_htJCuk3UUm6RuXZpR,https://www.youtube.com/watch?v=hcjxWZaffb0,Education,
City of Wyndham and The Australian Ballet Program,26/11/2019,Bxa2x0aTE6tYSNVEWRByaQSgYraKasVH,https://www.youtube.com/watch?v=A55JeU_uB0U,Education,
OUR EDUCATION TEAM INSPIRING KIDS IN WHYALLA,17/07/2019,c0dGY2aTE6tsH52VROF_lrv95lNbCoDJ,https://www.youtube.com/watch?v=ET_4GoerwiY,Education,
Education Program: Regional Tour Part II,12/12/2018,JycGN1ZzE6GOB1YquW8YuBwc5RrVtGSQ,https://www.youtube.com/watch?v=oR-dV7VZszc,Education,
Education: Dancing Story Promo 2019,5/3/2019,w1NWlkaDE6fudcA-R33XZJkvEWd88oef,https://www.youtube.com/watch?v=b-vfhIsDCLo,Education,
Swan Lake - David McAllister,15/03/2016,JuNDcyMjE6ZDxznqnzjsfE8ksSDQ6B60,https://www.youtube.com/watch?v=zFSeAw4HV7o,Education,
Education Program: Visiting St Kilda Primary,16/05/2018,FseWFjZjE6DnkgiaPqeCzej9SqLQPfe-,https://www.youtube.com/watch?v=8iLKqWdUT38,Education,
Education Program: South Australia Tour 2018,13/04/2018,BxYWowZjE6j2ldSgxTejWr9YFzYmF2Vs,https://www.youtube.com/watch?v=fzW7c29AhJI,Education,
Cairns Reflection Project,8/11/2017,AwZnVhZDE6bMy7m-AcfIqOzzFuZftXv9,https://www.youtube.com/watch?v=81A8kukQOZQ,Education,
Education Program: The Making of CoppÃ©lia,16/05/2018,hodWFjZjE6QLDPM5bEh5XGyVy24e2vU7,https://www.youtube.com/watch?v=MWVCtN_PyhM,Education,
Better Together Alliance in Shepparton,6/29/2018,IwZGpuZjE6vhH8ASwGUkO0erCCVkctDI,https://www.youtube.com/watch?v=z2LSbv5Y2P0,Education,
The Australian Ballet Education in Cairns,30/11/2017,9rMXFpZDE63lLm9RxwtAZi6_E4g-xlkc,https://www.youtube.com/watch?v=FZydA6zcfi4,Education,
David McAllister talks about Cinderella,15/03/2016,JzZTYyMjE6tzyd5GAadlRTELePV_cBm0,https://www.youtube.com/watch?v=EHEJkyz4nLM,Education,
Wardrobe and Production,15/03/2016,55OTcyMjE6DlbSbqZEo_YBNxGS3MHySt,https://www.youtube.com/watch?v=Wuz2Nk4peJo,Education,
Our Education Ensemble visit Weave,26/10/2016,g4NGgwNzE6B8-uWcwhvlwn23WIiipKvo,https://www.youtube.com/watch?v=GgiKGC3yJkA,Education,
STEAMDANCE with Spring Parks Primary School,31/05/2017,k2cGhlYjE6F6AyOiey6jBKtIURF1g3A3,https://www.youtube.com/watch?v=YcXooy7z_xg,Education,
Bring ballet to the bush,12/11/2019,dheWJyaTE6C_cQgliuz0G-PhKic83wmW,https://www.youtube.com/watch?v=nf70dnf4Jxs,Education,
A spectacular ballet in Adelaide,,twcTN5YzE6VDaL4hFVg9fZa6vZrvbJlf,,Deleted from Ooyala,
Studios: Leap through the Levels,unknown,BnNGcwaTE6jlJhEnkokZY1LalT8KazOA,,Deleted from Ooyala,
Spartacus: Step into the Arena,unknown,sycW9hZzE6GLo4JGPwOxEU4FOZy7kKHJ,,Deleted from Ooyala,
unknown,unknown,IyN2wwYjE6XqDdmxobYRFMR29THnnu4L,,Deleted from Ooyala,
unknown,unknown,xsZzNpOsGPfiqnFRY0Y2S0K6McFthtxL,,Deleted from Ooyala,
unknown,unknown,BpZzNpOjXVK5rER2yjBF7Dy2VhzQhIBh,,Deleted from Ooyala,
THE_SLEEPING_BEAUTY_LIVE_INTERNATIONAL 5.1 APPLEPRORES_aspera.mov,,o0bGlxZjE6yzmPTGks_ANk6WCHF19O-s,,Test full production upload. Not required.,Delete from website later
The Nutcracker,,ptN2d4MjE6-U-hZnIkrakMNRYr3ToSXl,,Full length production. Not required.,Delete from website later
The Nutcracker,21/11/2017,1zN3hmZDE6x0zrSr7u4SXmE81HBPw-rR,,Full Production. Not needed.,Delete from website later
Swan Lake,26/10/2016,g1azUxNzE6seFevYRaHXSL6aIbixBAdk,,Not on YouTube - full Ballet TV video,Delete from website later
LA SYLPHIDE_Hires_Correct,8/9/2016,kzZGtyNTE6LxZUZNfR1niS9UWKLXFHFO,,Not on YouTube - Full length ballet,Delete from website later
Dyad 1929,5/9/2016,RjajdwNTE6iwQTgSPNanfuxAojt5zv2d,,Not on YouTube - Full length ballet,Delete from website later
The Millinery Department,15/03/2016,x3MDYyMjE60WQJn-vSKLgjDaRj5y66eY,,Do not upload - milliner left unhappily,Check that it's deleted from website - Deleted
10 Questions with Jarryd Madden,24/03/2017,RpNzZoYTE6peL0EA4VJ7cl-8T-oLWERg,,Not on YouTube,Delete from website
10 Questions with Robyn Hendricks,2/6/2017,pqb2dmYjE6MsQy2tcpWPKqfwkWL5ZuLz,,Not on YouTube,Delete from website
10 Questions with Brodie James,5/7/2017,1vZDR0YjE6-Wf705MBfz1L7gE8ur8ImL,,Not on YouTube,Delete from website
10 Questions with Jill Ogai,18/07/2017,p5dzh5YjE62c29rCsLJXLB96-OL9QQjs,,Not on YouTube,Delete from website
10 Questions with Ella Havelka,16/06/2017,JidmRsYjE6OVkuq3Vf5cKBkjTU3-VJE2,,Not on YouTube,Delete from website
10 Questions with Lauren Cuthbertson,,RqbXhvYzE6n-yVMy9rSTG78x0wr2bmIp,,Not on YouTube,Delete from website - Can't find on website
10 Questions with Callum Linnane,21/02/2018,NnZGFmZTE6ucYVnkadGO3DhMhX6CXpLn,,Not on YouTube,Delete from website
10 Questions with Christopher Rodgers-Wilson,3/11/2017,J4Nzg5ZDE67slKF48Xfrwa8y9IATHTKz,,Not on YouTube,Delete from website
10 Questions with Sharni Spencer,8/2/2018,w0MHI5ZTE6GcJz0dP6gnYpY3q-Kx2y2t,,Not on YouTube,Delete from website
10 Questions with Vivienne Wong,26/04/2017,NvN2x4YTE6jBho0A-rndJyUWBs9JB7DR,,Not on YouTube,Delete from website
10 Questions with Gillian Murphy,19/10/2017,o3YTUzZDE6Y9aMuTfaokompujYNTbtqj,,Not on YouTube,Delete from website
10 Questions with Jade Wood,22/11/2017,xtYWJnZDE6uRJeH7_ELsoDlHkZw_8pmN,,Not on YouTube,Delete from website
10 Questions with FranÃ§ois-Eloi Lavignac,11/8/2017,A1NGQ5YzE6dNLIckTkyqmMgCTu0wt41B,,Not on YouTube,Delete from website
Robyn Hendricks on Playing Artemis,15/10/2019,A5dXBtaTE6O_1BJLqIUdeSjcVc1VyfD-,,Not on YouTube,Delete from website
Timeless power of Giselle,23/05/2017,9tazNiYjE6L0bt-wNFTwQvyy9EmGJTDy,,Not on YouTube,Delete from website
Cinderella is coming to Melbourne!,15/02/2019,BnOGs5aDE6asPCHcgefTExAqrd1l-Kb0,,Not on YouTube,Delete from website
Jill Ogai: Telstra Ballet Dancer Award nominee 2016,29/08/2016,MxZTVsNTE6oqgEvXz5-_6auY0JkVF-sb,,Not on YouTube,Delete from website
Storytime Coppelia: Road to Melbourne,3/10/2018,VoMnJjZzE6I3kDKNDVSAU49ZGGY86QUf,,Not on YouTube,Delete from website
Contemporary Ballet Class,2/11/2017,xrZnM4ZDE6XLaqfIRCkqMsu67OP9fjM0,,Not on YouTube,Delete from website
Exploring Contemporary,,B3MmJnZDE6bdAaYt4uvUQfMANaOFcCi_,,Not on YouTube,Delete from website
09_15_COREY_v42_16x9.mp4,27/09/2018,UxeThiZzE6Edbtsg-5GN2DiNOi4wQ_qC,,Not on YouTube,Delete from website - Can't find on website
08_15_BRODIE_v42_16x9.mp4,27/09/2018,d3eDhiZzE6s6Hic3ji3ria7naOReboGJ,,Not on YouTube,Delete from website - Can't find on website
TREAT MUM LIKE A QUEEN,18/04/2019,RpeDduaDE6HhOiVEr_vV-9JEB9CxHHtE,,Not on YouTube,Delete from website
Giselle on the road,,xveTFsYzE6NGgYyUmSOCJzTMMij6Q85C,,Not on YouTube,Delete from website
Giselle on the road,,ZzazNiYjE6D9RaR3_p4c1DxMXDLDbpdj,,Not on YouTube,Delete from website - Can't find on website
Giselle: The Regional Tour,8/9/2017,czMDJsYzE6Vq_NAcNqu-iMl-ZJoXy21J,,Not on YouTube,Delete from website
Alice's Adventures in Wonderland is coming to Brisbane,27/09/2018,NlcTdiZzE6onR43NoWkUigmtXRVNN6yW,,Not on YouTube,Delete from website - Can't find on website
World Ballet Day Trailer 2016,12/9/2016,h2eHl0NTE6cfQqpWDe3KrwgbUc27Jzvq,https://www.youtube.com/watch?v=oeyr6ksKS80,On Private,Delete from website
Alice is coming to Brisbane!,1/11/2018,M5YnBqZzE6_m3OJFCfi6qzql9IiZfGXR,,Not on YouTube,Delete from website
Regional Tour 2019 CoppÃ©lia,16/05/2019,xtZnVzaDE6Trih0DuiJxSf9JMsxdTGEO,,Not on YouTube,Delete from website - Duplicate
CoppÃ©lia: Road to Queensland,24/07/2018,Axbml0ZjE6b8TBZVOHBrDz7lAVOb_8YW,,Not on YouTube,Delete from website
Ako Kondo on playing Sylvia,30/08/2019,piZDFmaTE6KvmhI-DbSdBYFsjui-eLa2,,Not on YouTube,Delete from website
Ako Kondo on playing Sylvia,28/08/2019,s3b2xlaTE61LlqhkOAegI3sr_l0TopCe,,Not on YouTube,Delete from website
Ako Kondo on Playing Sylvia,15/10/2019,ZkdXBtaTE6SO0fjvT9YJWALI8TpL2T1m,,Not on YouTube,Delete from website
BALLETS DE MONTE CARLO IN MELBOURNE,13/05/2019,82czNzaDE6TSgWq3FDyvjcsHNFVL7ODH,,Not on YouTube,Delete from website
VERVE: FILIGREE AND SHADOW IN THE STUDIO,1/4/2019,N0N2lqaDE6tw12KFDs9h6tmscHBt2WX2,,Not on YouTube,Delete from website
The Sleeping Beauty in Adelaide,7/12/2017,h3ZjVsZDE6MvJ8Zc003Zz8PpECT3WQOa,,Not on YouTube,Delete from website - Can't find on website
A peek at Murphy's Nutcracker,7/4/2017,9oN25vYTE6ubnmKnDXaITTam-vn_U5iT,,Not on YouTube,Delete from website
Once Upon a Time: The Sleeping Beauty,30/05/2017,J2aDBlYjE6Vf9RHDW93uSJv_7k3HkKKG,,Not on YouTube,Delete from website
Once Upon a Time: The Sleeping Beauty,28/02/2017,U5NjIzYTE6cV7ZTvZA2wW7Y7ipiYMQUI,,Not on YouTube,Delete from website
Murphy on the mirror,21/02/2018,9hdGFmZTE61cSvIFGD3wendgLsJqNqUW,,Not on YouTube,Delete from website
Principal Artist Daniel Gaudiello,21/03/2016,JqYmo3MjE67tmXTXapO3nmiPzfWt0_SS,,Not on YouTube,Delete from website
Behind the Scenes of Studios,23/03/2017,VjMWxnYTE6YVwhQg-9umA8EeASneUD6X,,Not on YouTube,Delete from website - Can't find on website
Telstra Ballet Dancer Award 2015: Winner,16/03/2016,dmaXIyMjE6smH8KLtgfr0oiKZ3mkfSCe,,Not on YouTube,Delete from website
Callum Linnane: Telstra Ballet Dancer Award nominee 2016,29/08/2016,hzYjVsNTE6SfdT9UoKeqhMHFF7Pyb4cv,,Not on YouTube,Delete from website
Brodie James: Telstra Ballet Dancer Award nominee 2016,29/08/2016,M4YjVsNTE60G2BFaBepSjkqx3rDf8yPe,,Not on YouTube,Delete from website
Road to Palais,22/09/2016,NseGwxNjE6nkMg-p6OkaN7yawT2akudb,,Not on YouTube,Delete from website
Murphy on the audience,6/3/2018,RoZmJsZTE6AfVcHdcCWgzEFIfXIPPK7I,,Not on YouTube,Delete from website
Storytime is coming,9/12/2016,J3NDE1ODE6beNeU8PwIvqghEP0eooC4P,,Not on YouTube,Delete from website
Jade Wood: Telstra Ballet Dancer Award nominee 2016,29/08/2016,RqYzVsNTE6TdmkK1gomFtZHwCRoC6K7g,,Not on YouTube,Delete from website
Jarryd Madden: Telstra Ballet Dancer Award nominee 2016,29/08/2016,YyZDVsNTE6ojagFqEZFJadZylzE4nN2-,,Not on YouTube,Delete from website
BALLET UNDER THE STARS,21/08/2019,RmOTlkaTE6Y4UJ9NxdvmRPvZbfhoGMVW,,Not on YouTube,Delete from website
Benedicte Bemet on Playing Psyche,2/10/2019,EyZ29raTE6IYP4MVXUiv3fH71z66iKax,,Not on YouTube,Delete from website
Robyn Hendricks on playing Artemis,30/08/2019,05ZDFmaTE6s0d3Kmbw4DvYjH9n4lWk2x,,Not on YouTube,Delete from website - Can't find on website
10_15_JADE_v43_16x9.mp4,27/09/2018,UzeThiZzE6liNpkIWF3s4ayQa6jGF8Wz,,Not on YouTube - 2018 TBDA,Delete from website - Can't find on website
13_15_RINA_v43_16x9.mp4,27/09/2018,Y3eThiZzE6rW0uw0dUqqKa4-85Kh8r6_,,Not on YouTube - 2018 TBDA,Delete from website - Can't find on website
Our 2018 Season,25/09/2017,V4anFzYzE6GJT8Vj4b0LxRF1M5Yu73VW,,This version not on YouTube,Delete from website - Duplicate
Spartacus: Step into the Arena,25/09/2018,V1NXBhZzE64tB27sUPlmOHxTvg_v0h36,,Not on YouTube,Delete from website
BACKSTAGE WITH LES BALLET DE MONTE CARLO,22/03/2019,Z3ZWdoaDE6SMTWpcWwZcqmiL2eegmhhG,,Not on YouTube - Monte Carlo Ballet video,Delete from website
Becoming Romeo,,hlZWNhNDE6KFJ-Foj7oiTvrU2_MgmtZj,,Not on YouTube - Houston Ballet Video,Delete from website
Our Storytime Ballet takes shape ...,6/3/2017,FnamI2YTE6tLzxrtmXtBMIZJuMK10NZ-,,"Similar video, but for Sleeping Beauty not Nutcracker: https://youtu.be/WZJ01bPkdyY",Delete from website
12_15_NATHAN_v42_16x9.mp4,27/09/2018,Q1eThiZzE6mJz95Sb1uoe6hV6UJhnddw,,Old TBDA Video. To be deleted.,Delete from website - Can't find on website
11_15_LUCIEN_v42_16x9.mp4,27/09/2018,NieThiZzE6RbEfEEYDbgfcz8avFvwht1,,Old TBDA Video. To be deleted.,Delete from website - Can't find on website
Steven Heathcote shares his vision for Spartacus,1/6/2017,9ieTBmYjE648JeSR5F21WVpBFmwCqk9n,,Not on YouTube - Philanthropy,Delete from website - Can't find on website
The importance of our pointe shoes,31/03/2016,9ydGlnMjE6v1Zv1fRN8ovpGeo9k39HPh,,Not on YouTube - Philanthropy,Delete from website - Can't find on website
Philanthropy Cut_Cairns_EDU_V2.mp4,,V5c3Z2aTE64yr4A57DMb4lEUCO8nYtmv,,Not on YouTube - Philanthropy,Delete from website - Can't find on website
David McAllister's vision for Spartacus,,JiZDc5YjE62KLakHGe-QEdIVIeLEaQZk,,Not on YouTube - Philanthropy,Delete from website - Can't find on website
A thank you from The Australian Ballet,27/09/2017,p5OW10YzE6KNxkQPFeSpTiSBCyLeYnFe,,Not on YouTube - Philanthropy,Delete from website
Creating Spartacus: Opening Week,17/09/2018,NyY2c3ZzE6lukzU3nx5LRxbM6JIJCKFe,,Not on YouTube - Philanthropy,Delete from website
Natasha Kusen and Brett Simon discuss Spartacus,26/06/2017,52ZW1wYjE6Aj6TBBC1OZXH00VNDqVnOb,,Not on YouTube - Philanthropy,Delete from website - Can't find on website
CREATING SPARTACUS: STRENGTH AND FITNESS,14/09/2018,FqZ3Y2ZzE6x37UEcoUaAsHghZv56L9Sn,,Not on YouTube - Philanthropy,Delete from website
Kevin Jackson takes on a hero's role,,5iczVpYjE6l_q0VkrfFK19OlxJL09gK0,,Not on YouTube - Philanthropy,Delete from website - Can't find on website
Philanthropy: The Nutcracker 2019,14/12/2018,5jbXV1ZzE6Uu_NRnh1VJqTBb8IgqkvAb,,Not on YouTube - Philanthropy,Delete from website - Can't find on website
Philanthropy: The Nutcracker Costume Workshop,26/11/2018,FxdzRxZzE6XDuMat8HCPRjRJxeJwbuvc,,Not on YouTube - Philanthropy,Delete from website - Can't find on website
Behind the Scenes of our new activewear shoot,14/02/2017,k3dzlwOTE6_zFgSugTJ9ckOG3EZw5u9j,BTS not needed anymore,Not on YouTube,Delete from Website
The Australian Ballet China Tour 2018,5/10/2018,NhZGVkZzE6luDI2-BWVU6uF5vkV8Gh-n,,Not on YouTube,Delete from Website
The Merry Widow: A Taste,4/4/2018,JwdGx2ZTE6ydcisHUbep7GOPpeJ8MEYl,"This is a TVC, does not need to go on YouTube",Not on YouTube,Delete from Website
730s_DisabilityBallet_3008_512k.mp4,3/10/2016,VhOTc4NjE6lCsxRmqyU8h0GfHOS4fCae,Can't find this,Not on YouTube - Education,Upload to YT unlisted
Toeing the line,,E4M2kwNzE6UWDNYvz4LjwvH05VfVdwDs,Can't find this,Not on YouTube -  Education segment featured on Channel 7 News,Upload to YT unlisted